{
  "barbar.nvim": { "branch": "master", "commit": "dd852401ee902745b67fc09a83d113b3fe82a96f" },
  "catppuccin": { "branch": "main", "commit": "aebe43db9cb26e1c70fc5b2fd4158169c405e720" },
  "gitsigns.nvim": { "branch": "main", "commit": "fa052c20aa7cc62ce6a328c7f3bd556c93b5370e" },
  "gruvbox.nvim": { "branch": "main", "commit": "6e4027ae957cddf7b193adfaec4a8f9e03b4555f" },
  "lazy.nvim": { "branch": "main", "commit": "bef521ac89c8d423f9d092e37b58e8af0c099309" },
  "lualine.nvim": { "branch": "master", "commit": "b5e8bb642138f787a2c1c5aedc2a78cb2cebbd67" },
  "mason-lspconfig.nvim": { "branch": "main", "commit": "9dfcf2036c223920826140f0151d929a43f9eceb" },
  "mason.nvim": { "branch": "main", "commit": "751b1fcbf3d3b783fcf8d48865264a9bcd8f9b10" },
  "neo-tree.nvim": { "branch": "v3.x", "commit": "16d1b194376bf1fc2acd89ccb3c29ba8315bfcea" },
  "nui.nvim": { "branch": "main", "commit": "cbd2668414331c10039278f558630ed19b93e69b" },
  "nvim-lspconfig": { "branch": "master", "commit": "96e5711040df23583591391ce49e556b8cd248d8" },
  "nvim-treesitter": { "branch": "master", "commit": "54cf9180a36299265e217858e6e531245074c3f4" },
  "nvim-web-devicons": { "branch": "master", "commit": "3ee60deaa539360518eaab93a6c701fe9f4d82ef" },
  "plenary.nvim": { "branch": "master", "commit": "8aad4396840be7fc42896e3011751b7609ca4119" },
  "telescope-ui-select.nvim": { "branch": "master", "commit": "6e51d7da30bd139a6950adf2a47fda6df9fa06d2" },
  "telescope.nvim": { "branch": "master", "commit": "6312868392331c9c0f22725041f1ec2bef57c751" }
}